0000.000 (0) Opened log file at time: Tue, 19 Dec 2017 13:07:44 +0000 on http://hme.top1.pp.ua
0000.001 (0) UpdraftPlus WordPress backup plugin (https://updraftplus.com): 1.13.16 WP: 4.9.1 PHP: 5.6.31 (litespeed, Linux web279.default-host.net 3.10.0-614.10.2.lve1.4.56.el7.x86_64 #1 SMP Wed Jun 21 18:37:06 EDT 2017 x86_64) MySQL: 5.7.16 WPLANG: ru_RU Server: Apache safe_mode: 0 max_execution_time: 900 memory_limit: 256M (used: 72.3M | 72.8M) multisite: N openssl: OpenSSL 1.0.1e-fips 11 Feb 2013 mcrypt: Y LANG:  ZipArchive::addFile: Y
0000.002 (0) Free space on disk containing Updraft's temporary directory: 598015 MB
0000.003 (0) Tasks: Backup files: 1 (schedule: manual) Backup DB: 1 (schedule: manual)
0000.007 (0) Requesting semaphore lock (fd) (apparently not via scheduler)
0000.008 (0) Semaphore (fd, hm_options) was stuck, set lock time to 2017-12-19 13:07:44
0000.009 (0) Semaphore (fd, hm_options) reset to 1
0000.010 (0) Set semaphore last lock (fd) time to 2017-12-19 13:07:44
0000.011 (0) Semaphore lock (fd) complete
0000.016 (0) Backup run: resumption=0, nonce=ce29915215e4, begun at=1513688864 (0s ago), job type=backup
0000.017 (0) Scheduling a resumption (1) after 313 seconds (1513689177) in case this run gets aborted
0000.027 (0) Checking if we have a zip executable available
0000.028 (0) Testing: /usr/bin/zip
0000.034 (0) Output: zip warning: binziptest/test.zip not found or empty
0000.035 (0) Output: adding: binziptest/subdir1/	(in=0) (out=0) (stored 0%)
0000.036 (0) Output: adding: binziptest/subdir1/subdir2/	(in=0) (out=0) (stored 0%)
0000.037 (0) Output: adding: binziptest/subdir1/subdir2/test.html	(in=131) (out=107) (deflated 18%)
0000.037 (0) Output: total bytes=131, compressed=107 -> 18% savings
0000.044 (0) Output: adding: binziptest/subdir1/subdir2/test2.html	(in=138) (out=113) (deflated 18%)
0000.045 (0) Output: total bytes=269, compressed=220 -> 18% savings
0000.052 (0) Working binary zip found: /usr/bin/zip
0000.053 (0) Zip engine: found/will use a binary zip: /usr/bin/zip
0000.054 (0) Creation of backups of directories: beginning
0000.057 (0) Beginning creation of dump of plugins (split every: 500 MB)
0000.262 (0) Total entities for the zip file: 671 directories, 4434 files (0 skipped as non-modified), 60.5 MB
0000.266 (0) Zip: backup_2017-12-19-1507_Hakuna_Matata_Expeditions_ce29915215e4-plugins.zip.tmp: 100 files added (on-disk size: 0 KB)
0000.269 (0) Zip: backup_2017-12-19-1507_Hakuna_Matata_Expeditions_ce29915215e4-plugins.zip.tmp: 200 files added (on-disk size: 0 KB)
0000.272 (0) Zip: backup_2017-12-19-1507_Hakuna_Matata_Expeditions_ce29915215e4-plugins.zip.tmp: 300 files added (on-disk size: 0 KB)
0000.276 (0) Zip: backup_2017-12-19-1507_Hakuna_Matata_Expeditions_ce29915215e4-plugins.zip.tmp: 400 files added (on-disk size: 0 KB)
0000.279 (0) Zip: backup_2017-12-19-1507_Hakuna_Matata_Expeditions_ce29915215e4-plugins.zip.tmp: 500 files added (on-disk size: 0 KB)
0000.280 (0) Adding batch to zip file (UpdraftPlus_BinZip): over 500 files added on this batch (7.3 MB, 4434 files batched, 501 (501) added so far); re-opening (prior size: 0 KB)
0001.718 (0) backup_2017-12-19-1507_Hakuna_Matata_Expeditions_ce29915215e4-plugins.zip.tmp: size is now: 3.10 MB
0001.723 (0) Zip: backup_2017-12-19-1507_Hakuna_Matata_Expeditions_ce29915215e4-plugins.zip.tmp: 600 files added (on-disk size: 3150 KB)
0001.726 (0) Zip: backup_2017-12-19-1507_Hakuna_Matata_Expeditions_ce29915215e4-plugins.zip.tmp: 700 files added (on-disk size: 3150 KB)
0001.730 (0) Zip: backup_2017-12-19-1507_Hakuna_Matata_Expeditions_ce29915215e4-plugins.zip.tmp: 800 files added (on-disk size: 3150 KB)
0001.733 (0) Zip: backup_2017-12-19-1507_Hakuna_Matata_Expeditions_ce29915215e4-plugins.zip.tmp: 900 files added (on-disk size: 3150 KB)
0001.736 (0) Zip: backup_2017-12-19-1507_Hakuna_Matata_Expeditions_ce29915215e4-plugins.zip.tmp: 1000 files added (on-disk size: 3150 KB)
0001.737 (0) Adding batch to zip file (UpdraftPlus_BinZip): over 500 files added on this batch (5.3 MB, 4434 files batched, 501 (1002) added so far); re-opening (prior size: 3150 KB)
0002.721 (0) backup_2017-12-19-1507_Hakuna_Matata_Expeditions_ce29915215e4-plugins.zip.tmp: size is now: 6.10 MB
0002.726 (0) Zip: backup_2017-12-19-1507_Hakuna_Matata_Expeditions_ce29915215e4-plugins.zip.tmp: 1100 files added (on-disk size: 6277.6 KB)
0002.729 (0) Zip: backup_2017-12-19-1507_Hakuna_Matata_Expeditions_ce29915215e4-plugins.zip.tmp: 1200 files added (on-disk size: 6277.6 KB)
0002.732 (0) Zip: backup_2017-12-19-1507_Hakuna_Matata_Expeditions_ce29915215e4-plugins.zip.tmp: 1300 files added (on-disk size: 6277.6 KB)
0002.736 (0) Zip: backup_2017-12-19-1507_Hakuna_Matata_Expeditions_ce29915215e4-plugins.zip.tmp: 1400 files added (on-disk size: 6277.6 KB)
0002.739 (0) Zip: backup_2017-12-19-1507_Hakuna_Matata_Expeditions_ce29915215e4-plugins.zip.tmp: 1500 files added (on-disk size: 6277.6 KB)
0002.740 (0) Adding batch to zip file (UpdraftPlus_BinZip): over 500 files added on this batch (6 MB, 4434 files batched, 501 (1503) added so far); re-opening (prior size: 6277.6 KB)
0003.452 (0) backup_2017-12-19-1507_Hakuna_Matata_Expeditions_ce29915215e4-plugins.zip.tmp: size is now: 7.90 MB
0003.457 (0) Zip: backup_2017-12-19-1507_Hakuna_Matata_Expeditions_ce29915215e4-plugins.zip.tmp: 1600 files added (on-disk size: 8092.6 KB)
0003.460 (0) Zip: backup_2017-12-19-1507_Hakuna_Matata_Expeditions_ce29915215e4-plugins.zip.tmp: 1700 files added (on-disk size: 8092.6 KB)
0003.464 (0) Zip: backup_2017-12-19-1507_Hakuna_Matata_Expeditions_ce29915215e4-plugins.zip.tmp: 1800 files added (on-disk size: 8092.6 KB)
0003.467 (0) Zip: backup_2017-12-19-1507_Hakuna_Matata_Expeditions_ce29915215e4-plugins.zip.tmp: 1900 files added (on-disk size: 8092.6 KB)
0003.470 (0) Zip: backup_2017-12-19-1507_Hakuna_Matata_Expeditions_ce29915215e4-plugins.zip.tmp: 2000 files added (on-disk size: 8092.6 KB)
0003.471 (0) Adding batch to zip file (UpdraftPlus_BinZip): over 500 files added on this batch (5.4 MB, 4434 files batched, 501 (2004) added so far); re-opening (prior size: 8092.6 KB)
0004.484 (0) backup_2017-12-19-1507_Hakuna_Matata_Expeditions_ce29915215e4-plugins.zip.tmp: size is now: 10.20 MB
0004.489 (0) Zip: backup_2017-12-19-1507_Hakuna_Matata_Expeditions_ce29915215e4-plugins.zip.tmp: 2100 files added (on-disk size: 10462.1 KB)
0004.492 (0) Zip: backup_2017-12-19-1507_Hakuna_Matata_Expeditions_ce29915215e4-plugins.zip.tmp: 2200 files added (on-disk size: 10462.1 KB)
0004.496 (0) Zip: backup_2017-12-19-1507_Hakuna_Matata_Expeditions_ce29915215e4-plugins.zip.tmp: 2300 files added (on-disk size: 10462.1 KB)
0004.499 (0) Zip: backup_2017-12-19-1507_Hakuna_Matata_Expeditions_ce29915215e4-plugins.zip.tmp: 2400 files added (on-disk size: 10462.1 KB)
0004.503 (0) Zip: backup_2017-12-19-1507_Hakuna_Matata_Expeditions_ce29915215e4-plugins.zip.tmp: 2500 files added (on-disk size: 10462.1 KB)
0004.504 (0) Adding batch to zip file (UpdraftPlus_BinZip): over 500 files added on this batch (6.5 MB, 4434 files batched, 501 (2505) added so far); re-opening (prior size: 10462.1 KB)
0006.505 (0) Zip: backup_2017-12-19-1507_Hakuna_Matata_Expeditions_ce29915215e4-plugins.zip.tmp: 2600 files added (on-disk size: 12291.2 KB)
0006.509 (0) Zip: backup_2017-12-19-1507_Hakuna_Matata_Expeditions_ce29915215e4-plugins.zip.tmp: 2700 files added (on-disk size: 12291.2 KB)
0006.512 (0) Zip: backup_2017-12-19-1507_Hakuna_Matata_Expeditions_ce29915215e4-plugins.zip.tmp: 2800 files added (on-disk size: 12291.2 KB)
0006.515 (0) Zip: backup_2017-12-19-1507_Hakuna_Matata_Expeditions_ce29915215e4-plugins.zip.tmp: 2900 files added (on-disk size: 12291.2 KB)
0006.519 (0) Zip: backup_2017-12-19-1507_Hakuna_Matata_Expeditions_ce29915215e4-plugins.zip.tmp: 3000 files added (on-disk size: 12291.2 KB)
0006.520 (0) Adding batch to zip file (UpdraftPlus_BinZip): over 500 files added on this batch (6.3 MB, 4434 files batched, 501 (3006) added so far); re-opening (prior size: 12291.2 KB)
0008.122 (0) Zip: backup_2017-12-19-1507_Hakuna_Matata_Expeditions_ce29915215e4-plugins.zip.tmp: 3100 files added (on-disk size: 14436.6 KB)
0008.126 (0) Zip: backup_2017-12-19-1507_Hakuna_Matata_Expeditions_ce29915215e4-plugins.zip.tmp: 3200 files added (on-disk size: 14436.6 KB)
0008.129 (0) Zip: backup_2017-12-19-1507_Hakuna_Matata_Expeditions_ce29915215e4-plugins.zip.tmp: 3300 files added (on-disk size: 14436.6 KB)
0008.132 (0) Zip: backup_2017-12-19-1507_Hakuna_Matata_Expeditions_ce29915215e4-plugins.zip.tmp: 3400 files added (on-disk size: 14436.6 KB)
0008.135 (0) Zip: backup_2017-12-19-1507_Hakuna_Matata_Expeditions_ce29915215e4-plugins.zip.tmp: 3500 files added (on-disk size: 14436.6 KB)
0008.136 (0) Adding batch to zip file (UpdraftPlus_BinZip): over 500 files added on this batch (16.7 MB, 4434 files batched, 501 (3507) added so far); re-opening (prior size: 14436.6 KB)
0011.253 (0) backup_2017-12-19-1507_Hakuna_Matata_Expeditions_ce29915215e4-plugins.zip.tmp: size is now: 18.90 MB
0011.258 (0) Zip: backup_2017-12-19-1507_Hakuna_Matata_Expeditions_ce29915215e4-plugins.zip.tmp: 3600 files added (on-disk size: 19326.9 KB)
0011.262 (0) Zip: backup_2017-12-19-1507_Hakuna_Matata_Expeditions_ce29915215e4-plugins.zip.tmp: 3700 files added (on-disk size: 19326.9 KB)
0011.265 (0) Zip: backup_2017-12-19-1507_Hakuna_Matata_Expeditions_ce29915215e4-plugins.zip.tmp: 3800 files added (on-disk size: 19326.9 KB)
0011.268 (0) Zip: backup_2017-12-19-1507_Hakuna_Matata_Expeditions_ce29915215e4-plugins.zip.tmp: 3900 files added (on-disk size: 19326.9 KB)
0011.271 (0) Zip: backup_2017-12-19-1507_Hakuna_Matata_Expeditions_ce29915215e4-plugins.zip.tmp: 4000 files added (on-disk size: 19326.9 KB)
0011.272 (0) Adding batch to zip file (UpdraftPlus_BinZip): over 500 files added on this batch (1.8 MB, 4434 files batched, 501 (4008) added so far); re-opening (prior size: 19326.9 KB)
0013.753 (0) Zip: backup_2017-12-19-1507_Hakuna_Matata_Expeditions_ce29915215e4-plugins.zip.tmp: 4100 files added (on-disk size: 20084 KB)
0013.757 (0) Zip: backup_2017-12-19-1507_Hakuna_Matata_Expeditions_ce29915215e4-plugins.zip.tmp: 4200 files added (on-disk size: 20084 KB)
0013.760 (0) Zip: backup_2017-12-19-1507_Hakuna_Matata_Expeditions_ce29915215e4-plugins.zip.tmp: 4300 files added (on-disk size: 20084 KB)
0013.763 (0) Zip: backup_2017-12-19-1507_Hakuna_Matata_Expeditions_ce29915215e4-plugins.zip.tmp: 4400 files added (on-disk size: 20084 KB)
0016.049 (0) Created plugins zip (0) - 21775.5 KB in 16 s (1361.7 KB/s) (sha1: 0b3fb21c615017a2af90087461aec2b407e79650, sha256: 972f1a7589d9a8d501f674dfcf2b8b20c34c78039aaa9d55d3a9c8b6824ef174)
0016.051 (0) Beginning creation of dump of themes (split every: 500 MB)
0016.131 (0) Total entities for the zip file: 220 directories, 1360 files (0 skipped as non-modified), 15.9 MB
0016.135 (0) Zip: backup_2017-12-19-1507_Hakuna_Matata_Expeditions_ce29915215e4-themes.zip.tmp: 100 files added (on-disk size: 0 KB)
0016.138 (0) Zip: backup_2017-12-19-1507_Hakuna_Matata_Expeditions_ce29915215e4-themes.zip.tmp: 200 files added (on-disk size: 0 KB)
0016.142 (0) Zip: backup_2017-12-19-1507_Hakuna_Matata_Expeditions_ce29915215e4-themes.zip.tmp: 300 files added (on-disk size: 0 KB)
0016.145 (0) Zip: backup_2017-12-19-1507_Hakuna_Matata_Expeditions_ce29915215e4-themes.zip.tmp: 400 files added (on-disk size: 0 KB)
0016.149 (0) Zip: backup_2017-12-19-1507_Hakuna_Matata_Expeditions_ce29915215e4-themes.zip.tmp: 500 files added (on-disk size: 0 KB)
0016.150 (0) Adding batch to zip file (UpdraftPlus_BinZip): over 500 files added on this batch (7.5 MB, 1360 files batched, 501 (501) added so far); re-opening (prior size: 0 KB)
0016.713 (0) backup_2017-12-19-1507_Hakuna_Matata_Expeditions_ce29915215e4-themes.zip.tmp: size is now: 1.90 MB
0016.719 (0) Zip: backup_2017-12-19-1507_Hakuna_Matata_Expeditions_ce29915215e4-themes.zip.tmp: 600 files added (on-disk size: 1958.1 KB)
0016.723 (0) Zip: backup_2017-12-19-1507_Hakuna_Matata_Expeditions_ce29915215e4-themes.zip.tmp: 700 files added (on-disk size: 1958.1 KB)
0016.727 (0) Zip: backup_2017-12-19-1507_Hakuna_Matata_Expeditions_ce29915215e4-themes.zip.tmp: 800 files added (on-disk size: 1958.1 KB)
0016.730 (0) Zip: backup_2017-12-19-1507_Hakuna_Matata_Expeditions_ce29915215e4-themes.zip.tmp: 900 files added (on-disk size: 1958.1 KB)
0016.734 (0) Zip: backup_2017-12-19-1507_Hakuna_Matata_Expeditions_ce29915215e4-themes.zip.tmp: 1000 files added (on-disk size: 1958.1 KB)
0016.735 (0) Adding batch to zip file (UpdraftPlus_BinZip): over 500 files added on this batch (7.1 MB, 1360 files batched, 501 (1002) added so far); re-opening (prior size: 1958.1 KB)
0017.375 (0) backup_2017-12-19-1507_Hakuna_Matata_Expeditions_ce29915215e4-themes.zip.tmp: size is now: 4.40 MB
0017.383 (0) Zip: backup_2017-12-19-1507_Hakuna_Matata_Expeditions_ce29915215e4-themes.zip.tmp: 1100 files added (on-disk size: 4464.3 KB)
0017.387 (0) Zip: backup_2017-12-19-1507_Hakuna_Matata_Expeditions_ce29915215e4-themes.zip.tmp: 1200 files added (on-disk size: 4464.3 KB)
0017.391 (0) Zip: backup_2017-12-19-1507_Hakuna_Matata_Expeditions_ce29915215e4-themes.zip.tmp: 1300 files added (on-disk size: 4464.3 KB)
0018.958 (0) backup_2017-12-19-1507_Hakuna_Matata_Expeditions_ce29915215e4-themes.zip.tmp: size is now: 5.50 MB
0019.034 (0) Created themes zip (0) - 5656.5 KB in 3 s (1897 KB/s) (sha1: f1857fc38975669aed6edd507a392464dca919af, sha256: 5051d9676953f2e9cd0a106918ae68838b5155b7fb0e81c5edfd9da6df48f2e7)
0019.036 (0) Exclusion option setting (uploads): backup*,*backups,backwpup*,wp-clone,snapshots
0019.037 (0) Looking for candidates to back up in: /home/top1ua/top1.pp.ua/hme/wp-content/uploads
0019.038 (0) finding files: 2017: adding to list (1)
0019.039 (0) finding files: fusion-scripts: adding to list (2)
0019.039 (0) finding files: fusion-styles: adding to list (3)
0019.040 (0) finding files: 2016: adding to list (4)
0019.041 (0) finding files: fusionredux: adding to list (5)
0019.042 (0) Beginning creation of dump of uploads (split every: 500 MB)
0019.576 (0) Total entities for the zip file: 15 directories, 8786 files (0 skipped as non-modified), 660 MB
0019.580 (0) Zip: backup_2017-12-19-1507_Hakuna_Matata_Expeditions_ce29915215e4-uploads.zip.tmp: 100 files added (on-disk size: 0 KB)
0019.583 (0) Adding batch to zip file (UpdraftPlus_BinZip): over 25 MB added on this batch (25.1 MB, 8786 files batched, 159 (159) added so far); re-opening (prior size: 0 KB)
0025.031 (0) backup_2017-12-19-1507_Hakuna_Matata_Expeditions_ce29915215e4-uploads.zip.tmp: size is now: 25.10 MB
0025.033 (0) A useful amount of data was added after this amount of zip processing: 6.9 s (normalised: 6.9 s, rate: 3717 KB/s)
0025.036 (0) Zip: backup_2017-12-19-1507_Hakuna_Matata_Expeditions_ce29915215e4-uploads.zip.tmp: 200 files added (on-disk size: 25749.3 KB)
0025.039 (0) Zip: backup_2017-12-19-1507_Hakuna_Matata_Expeditions_ce29915215e4-uploads.zip.tmp: 300 files added (on-disk size: 25749.3 KB)
0025.042 (0) Adding batch to zip file (UpdraftPlus_BinZip): over 25 MB added on this batch (25.3 MB, 8786 files batched, 192 (351) added so far); re-opening (prior size: 25749.3 KB)
0033.439 (0) backup_2017-12-19-1507_Hakuna_Matata_Expeditions_ce29915215e4-uploads.zip.tmp: size is now: 50.50 MB
0033.441 (0) A useful amount of data was added after this amount of zip processing: 9.3 s (normalised: 9.2 s, rate: 2779.2 KB/s)
0033.444 (0) Zip: backup_2017-12-19-1507_Hakuna_Matata_Expeditions_ce29915215e4-uploads.zip.tmp: 400 files added (on-disk size: 51711.6 KB)
0033.447 (0) Zip: backup_2017-12-19-1507_Hakuna_Matata_Expeditions_ce29915215e4-uploads.zip.tmp: 500 files added (on-disk size: 51711.6 KB)
0033.451 (0) Zip: backup_2017-12-19-1507_Hakuna_Matata_Expeditions_ce29915215e4-uploads.zip.tmp: 600 files added (on-disk size: 51711.6 KB)
0033.454 (0) Zip: backup_2017-12-19-1507_Hakuna_Matata_Expeditions_ce29915215e4-uploads.zip.tmp: 700 files added (on-disk size: 51711.6 KB)
0033.457 (0) Adding batch to zip file (UpdraftPlus_BinZip): over 25 MB added on this batch (25 MB, 8786 files batched, 417 (768) added so far); re-opening (prior size: 51711.6 KB)
0041.921 (0) backup_2017-12-19-1507_Hakuna_Matata_Expeditions_ce29915215e4-uploads.zip.tmp: size is now: 75.10 MB
0041.924 (0) A useful amount of data was added after this amount of zip processing: 8.8 s (normalised: 8.8 s, rate: 2906.6 KB/s)
0041.926 (0) Zip: backup_2017-12-19-1507_Hakuna_Matata_Expeditions_ce29915215e4-uploads.zip.tmp: 800 files added (on-disk size: 76907.7 KB)
0041.930 (0) Zip: backup_2017-12-19-1507_Hakuna_Matata_Expeditions_ce29915215e4-uploads.zip.tmp: 900 files added (on-disk size: 76907.7 KB)
0041.933 (0) Zip: backup_2017-12-19-1507_Hakuna_Matata_Expeditions_ce29915215e4-uploads.zip.tmp: 1000 files added (on-disk size: 76907.7 KB)
0041.936 (0) Zip: backup_2017-12-19-1507_Hakuna_Matata_Expeditions_ce29915215e4-uploads.zip.tmp: 1100 files added (on-disk size: 76907.7 KB)
0041.938 (0) Adding batch to zip file (UpdraftPlus_BinZip): over 25 MB added on this batch (25.1 MB, 8786 files batched, 377 (1145) added so far); re-opening (prior size: 76907.7 KB)
0054.653 (0) backup_2017-12-19-1507_Hakuna_Matata_Expeditions_ce29915215e4-uploads.zip.tmp: size is now: 100.30 MB
0054.656 (0) A useful amount of data was added after this amount of zip processing: 13.5 s (normalised: 13.5 s, rate: 1896.5 KB/s)
0054.659 (0) Zip: backup_2017-12-19-1507_Hakuna_Matata_Expeditions_ce29915215e4-uploads.zip.tmp: 1200 files added (on-disk size: 102663 KB)
0054.662 (0) Zip: backup_2017-12-19-1507_Hakuna_Matata_Expeditions_ce29915215e4-uploads.zip.tmp: 1300 files added (on-disk size: 102663 KB)
0054.665 (0) Zip: backup_2017-12-19-1507_Hakuna_Matata_Expeditions_ce29915215e4-uploads.zip.tmp: 1400 files added (on-disk size: 102663 KB)
0054.668 (0) Zip: backup_2017-12-19-1507_Hakuna_Matata_Expeditions_ce29915215e4-uploads.zip.tmp: 1500 files added (on-disk size: 102663 KB)
0054.671 (0) Adding batch to zip file (UpdraftPlus_BinZip): over 25 MB added on this batch (25.1 MB, 8786 files batched, 420 (1565) added so far); re-opening (prior size: 102663 KB)
0062.329 (0) backup_2017-12-19-1507_Hakuna_Matata_Expeditions_ce29915215e4-uploads.zip.tmp: size is now: 125.40 MB
0062.331 (0) A useful amount of data was added after this amount of zip processing: 8.2 s (normalised: 8.2 s, rate: 3125.7 KB/s)
0062.334 (0) Zip: backup_2017-12-19-1507_Hakuna_Matata_Expeditions_ce29915215e4-uploads.zip.tmp: 1600 files added (on-disk size: 128426.4 KB)
0062.337 (0) Zip: backup_2017-12-19-1507_Hakuna_Matata_Expeditions_ce29915215e4-uploads.zip.tmp: 1700 files added (on-disk size: 128426.4 KB)
0062.340 (0) Zip: backup_2017-12-19-1507_Hakuna_Matata_Expeditions_ce29915215e4-uploads.zip.tmp: 1800 files added (on-disk size: 128426.4 KB)
0062.343 (0) Zip: backup_2017-12-19-1507_Hakuna_Matata_Expeditions_ce29915215e4-uploads.zip.tmp: 1900 files added (on-disk size: 128426.4 KB)
0062.346 (0) Adding batch to zip file (UpdraftPlus_BinZip): over 25 MB added on this batch (26.3 MB, 8786 files batched, 405 (1970) added so far); re-opening (prior size: 128426.4 KB)
0081.143 (0) backup_2017-12-19-1507_Hakuna_Matata_Expeditions_ce29915215e4-uploads.zip.tmp: size is now: 151.80 MB
0081.145 (0) A useful amount of data was added after this amount of zip processing: 19 s (normalised: 18.1 s, rate: 1412.9 KB/s)
0081.148 (0) Zip: backup_2017-12-19-1507_Hakuna_Matata_Expeditions_ce29915215e4-uploads.zip.tmp: 2000 files added (on-disk size: 155395.3 KB)
0081.151 (0) Zip: backup_2017-12-19-1507_Hakuna_Matata_Expeditions_ce29915215e4-uploads.zip.tmp: 2100 files added (on-disk size: 155395.3 KB)
0081.154 (0) Zip: backup_2017-12-19-1507_Hakuna_Matata_Expeditions_ce29915215e4-uploads.zip.tmp: 2200 files added (on-disk size: 155395.3 KB)
0081.157 (0) Zip: backup_2017-12-19-1507_Hakuna_Matata_Expeditions_ce29915215e4-uploads.zip.tmp: 2300 files added (on-disk size: 155395.3 KB)
0081.161 (0) Zip: backup_2017-12-19-1507_Hakuna_Matata_Expeditions_ce29915215e4-uploads.zip.tmp: 2400 files added (on-disk size: 155395.3 KB)
0081.162 (0) Adding batch to zip file (UpdraftPlus_BinZip): over 25 MB added on this batch (25.2 MB, 8786 files batched, 445 (2415) added so far); re-opening (prior size: 155395.3 KB)
0103.113 (0) A useful amount of data was added after this amount of zip processing: 22 s (normalised: 21.8 s, rate: 1172.5 KB/s)
0103.118 (0) Zip: backup_2017-12-19-1507_Hakuna_Matata_Expeditions_ce29915215e4-uploads.zip.tmp: 2500 files added (on-disk size: 181277.7 KB)
0103.122 (0) Zip: backup_2017-12-19-1507_Hakuna_Matata_Expeditions_ce29915215e4-uploads.zip.tmp: 2600 files added (on-disk size: 181277.7 KB)
0103.125 (0) Zip: backup_2017-12-19-1507_Hakuna_Matata_Expeditions_ce29915215e4-uploads.zip.tmp: 2700 files added (on-disk size: 181277.7 KB)
0103.127 (0) Adding batch to zip file (UpdraftPlus_BinZip): over 25 MB added on this batch (26.3 MB, 8786 files batched, 311 (2726) added so far); re-opening (prior size: 181277.7 KB)
0127.367 (0) A useful amount of data was added after this amount of zip processing: 25.3 s (normalised: 24 s, rate: 1067.2 KB/s)
0127.371 (0) Zip: backup_2017-12-19-1507_Hakuna_Matata_Expeditions_ce29915215e4-uploads.zip.tmp: 2800 files added (on-disk size: 208287.6 KB)
0127.374 (0) Zip: backup_2017-12-19-1507_Hakuna_Matata_Expeditions_ce29915215e4-uploads.zip.tmp: 2900 files added (on-disk size: 208287.6 KB)
0127.375 (0) Adding batch to zip file (UpdraftPlus_BinZip): over 25 MB added on this batch (25.4 MB, 8786 files batched, 190 (2916) added so far); re-opening (prior size: 208287.6 KB)
0154.227 (0) A useful amount of data was added after this amount of zip processing: 27.1 s (normalised: 26.7 s, rate: 959.2 KB/s)
0154.231 (0) Zip: backup_2017-12-19-1507_Hakuna_Matata_Expeditions_ce29915215e4-uploads.zip.tmp: 3000 files added (on-disk size: 234331.9 KB)
0154.234 (0) Adding batch to zip file (UpdraftPlus_BinZip): over 25 MB added on this batch (25.8 MB, 8786 files batched, 151 (3067) added so far); re-opening (prior size: 234331.9 KB)
0183.098 (0) A useful amount of data was added after this amount of zip processing: 29 s (normalised: 28.1 s, rate: 911.4 KB/s)
0183.101 (0) Zip: backup_2017-12-19-1507_Hakuna_Matata_Expeditions_ce29915215e4-uploads.zip.tmp: 3100 files added (on-disk size: 260779.3 KB)
0183.105 (0) Zip: backup_2017-12-19-1507_Hakuna_Matata_Expeditions_ce29915215e4-uploads.zip.tmp: 3200 files added (on-disk size: 260779.3 KB)
0183.107 (0) Adding batch to zip file (UpdraftPlus_BinZip): over 25 MB added on this batch (25.2 MB, 8786 files batched, 177 (3244) added so far); re-opening (prior size: 260779.3 KB)
0215.225 (0) A useful amount of data was added after this amount of zip processing: 33.1 s (normalised: 32.9 s, rate: 778.7 KB/s)
0215.228 (0) Zip: backup_2017-12-19-1507_Hakuna_Matata_Expeditions_ce29915215e4-uploads.zip.tmp: 3300 files added (on-disk size: 286597.4 KB)
0215.231 (0) Zip: backup_2017-12-19-1507_Hakuna_Matata_Expeditions_ce29915215e4-uploads.zip.tmp: 3400 files added (on-disk size: 286597.4 KB)
0215.233 (0) Adding batch to zip file (UpdraftPlus_BinZip): over 25 MB added on this batch (25.3 MB, 8786 files batched, 189 (3433) added so far); re-opening (prior size: 286597.4 KB)
0250.543 (0) A useful amount of data was added after this amount of zip processing: 35.4 s (normalised: 35 s, rate: 731.3 KB/s)
0250.547 (0) Zip: backup_2017-12-19-1507_Hakuna_Matata_Expeditions_ce29915215e4-uploads.zip.tmp: 3500 files added (on-disk size: 312546.4 KB)
0250.550 (0) Zip: backup_2017-12-19-1507_Hakuna_Matata_Expeditions_ce29915215e4-uploads.zip.tmp: 3600 files added (on-disk size: 312546.4 KB)
0250.553 (0) Zip: backup_2017-12-19-1507_Hakuna_Matata_Expeditions_ce29915215e4-uploads.zip.tmp: 3700 files added (on-disk size: 312546.4 KB)
0250.556 (0) Zip: backup_2017-12-19-1507_Hakuna_Matata_Expeditions_ce29915215e4-uploads.zip.tmp: 3800 files added (on-disk size: 312546.4 KB)
0250.559 (0) Adding batch to zip file (UpdraftPlus_BinZip): over 25 MB added on this batch (25 MB, 8786 files batched, 445 (3878) added so far); re-opening (prior size: 312546.4 KB)
0288.278 (0) The time we have been running (288.3) is approaching the resumption interval (313) - increasing resumption interval to 319
0288.359 (0) The scheduled resumption is within 45 seconds - will reschedule
0288.361 (0) Rescheduling resumption 1: moving to 364 seconds from now (1513689517)
0288.364 (0) To decrease the likelihood of overlaps, increasing resumption interval to: 319 + 45 = 364
0288.365 (0) A useful amount of data was added after this amount of zip processing: 38.2 s (normalised: 38.2 s, rate: 670.4 KB/s)
0288.367 (0) Zip: backup_2017-12-19-1507_Hakuna_Matata_Expeditions_ce29915215e4-uploads.zip.tmp: 3900 files added (on-disk size: 338289.9 KB)
0288.371 (0) Zip: backup_2017-12-19-1507_Hakuna_Matata_Expeditions_ce29915215e4-uploads.zip.tmp: 4000 files added (on-disk size: 338289.9 KB)
0288.375 (0) Zip: backup_2017-12-19-1507_Hakuna_Matata_Expeditions_ce29915215e4-uploads.zip.tmp: 4100 files added (on-disk size: 338289.9 KB)
0288.378 (0) Zip: backup_2017-12-19-1507_Hakuna_Matata_Expeditions_ce29915215e4-uploads.zip.tmp: 4200 files added (on-disk size: 338289.9 KB)
0288.380 (0) Adding batch to zip file (UpdraftPlus_BinZip): over 25 MB added on this batch (25 MB, 8786 files batched, 354 (4232) added so far); re-opening (prior size: 338289.9 KB)
0670.883 (1) Opened log file at time: Tue, 19 Dec 2017 13:18:55 +0000 on http://hme.top1.pp.ua
0670.884 (1) UpdraftPlus WordPress backup plugin (https://updraftplus.com): 1.13.16 WP: 4.9.1 PHP: 5.6.31 (litespeed, Linux web279.default-host.net 3.10.0-614.10.2.lve1.4.56.el7.x86_64 #1 SMP Wed Jun 21 18:37:06 EDT 2017 x86_64) MySQL: 5.7.16 WPLANG: ru_RU Server: Apache safe_mode: 0 max_execution_time: 900 memory_limit: 256M (used: 60.2M | 61.3M) multisite: N openssl: OpenSSL 1.0.1e-fips 11 Feb 2013 mcrypt: Y LANG:  ZipArchive::addFile: Y
0670.885 (1) Free space on disk containing Updraft's temporary directory: 597588.8 MB
0670.887 (1) Backup run: resumption=1, nonce=ce29915215e4, begun at=1513688864 (671s ago), job type=backup, previous check-in=288.4s
0670.888 (1) Scheduling a resumption (2) after 364 seconds (1513689899) in case this run gets aborted
0670.897 (1) Checking if we have a zip executable available
0670.898 (1) Zip engine: found/will use a binary zip: /usr/bin/zip
0670.899 (1) Creation of backups of directories: had begun; will resume
0670.901 (1) Beginning creation of dump of plugins (split every: 500 MB)
0670.902 (1) backup_2017-12-19-1507_Hakuna_Matata_Expeditions_ce29915215e4-plugins.zip: this file has already been created (age: 655 s)
0670.904 (1) Beginning creation of dump of themes (split every: 500 MB)
0670.905 (1) backup_2017-12-19-1507_Hakuna_Matata_Expeditions_ce29915215e4-themes.zip: this file has already been created (age: 652 s)
0670.907 (1) Exclusion option setting (uploads): backup*,*backups,backwpup*,wp-clone,snapshots
0670.908 (1) Looking for candidates to back up in: /home/top1ua/top1.pp.ua/hme/wp-content/uploads
0670.909 (1) finding files: 2017: adding to list (1)
0670.910 (1) finding files: fusion-scripts: adding to list (2)
0670.910 (1) finding files: fusion-styles: adding to list (3)
0670.911 (1) finding files: 2016: adding to list (4)
0670.912 (1) finding files: fusionredux: adding to list (5)
0670.912 (1) Beginning creation of dump of uploads (split every: 500 MB)
0670.913 (1) File exists (/home/top1ua/top1.pp.ua/hme/wp-content/updraft/backup_2017-12-19-1507_Hakuna_Matata_Expeditions_ce29915215e4-uploads.zip.tmp), but was apparently not modified within the last 30 seconds, so we assume that any previous run has now terminated (time_mod=1513689194, time_now=1513689535, diff=341)
0671.039 (1) backup_2017-12-19-1507_Hakuna_Matata_Expeditions_ce29915215e4-uploads.zip.tmp: Zip file already exists, with 4232 files
0671.150 (1) Total entities for the zip file: 15 directories, 8786 files (0 skipped as non-modified), 660 MB
0671.153 (1) Zip: backup_2017-12-19-1507_Hakuna_Matata_Expeditions_ce29915215e4-uploads.zip.tmp: 100 files added (on-disk size: 363984.8 KB)
0671.154 (1) Zip: backup_2017-12-19-1507_Hakuna_Matata_Expeditions_ce29915215e4-uploads.zip.tmp: 200 files added (on-disk size: 363984.8 KB)
0671.155 (1) Zip: backup_2017-12-19-1507_Hakuna_Matata_Expeditions_ce29915215e4-uploads.zip.tmp: 300 files added (on-disk size: 363984.8 KB)
0671.156 (1) Zip: backup_2017-12-19-1507_Hakuna_Matata_Expeditions_ce29915215e4-uploads.zip.tmp: 400 files added (on-disk size: 363984.8 KB)
0671.157 (1) Zip: backup_2017-12-19-1507_Hakuna_Matata_Expeditions_ce29915215e4-uploads.zip.tmp: 500 files added (on-disk size: 363984.8 KB)
0671.158 (1) Zip: backup_2017-12-19-1507_Hakuna_Matata_Expeditions_ce29915215e4-uploads.zip.tmp: 600 files added (on-disk size: 363984.8 KB)
0671.159 (1) Zip: backup_2017-12-19-1507_Hakuna_Matata_Expeditions_ce29915215e4-uploads.zip.tmp: 700 files added (on-disk size: 363984.8 KB)
0671.160 (1) Zip: backup_2017-12-19-1507_Hakuna_Matata_Expeditions_ce29915215e4-uploads.zip.tmp: 800 files added (on-disk size: 363984.8 KB)
0671.161 (1) Zip: backup_2017-12-19-1507_Hakuna_Matata_Expeditions_ce29915215e4-uploads.zip.tmp: 900 files added (on-disk size: 363984.8 KB)
0671.162 (1) Zip: backup_2017-12-19-1507_Hakuna_Matata_Expeditions_ce29915215e4-uploads.zip.tmp: 1000 files added (on-disk size: 363984.8 KB)
0671.165 (1) Zip: backup_2017-12-19-1507_Hakuna_Matata_Expeditions_ce29915215e4-uploads.zip.tmp: 1100 files added (on-disk size: 363984.8 KB)
0671.166 (1) Zip: backup_2017-12-19-1507_Hakuna_Matata_Expeditions_ce29915215e4-uploads.zip.tmp: 1200 files added (on-disk size: 363984.8 KB)
0671.167 (1) Zip: backup_2017-12-19-1507_Hakuna_Matata_Expeditions_ce29915215e4-uploads.zip.tmp: 1300 files added (on-disk size: 363984.8 KB)
0671.168 (1) Zip: backup_2017-12-19-1507_Hakuna_Matata_Expeditions_ce29915215e4-uploads.zip.tmp: 1400 files added (on-disk size: 363984.8 KB)
0671.169 (1) Zip: backup_2017-12-19-1507_Hakuna_Matata_Expeditions_ce29915215e4-uploads.zip.tmp: 1500 files added (on-disk size: 363984.8 KB)
0671.170 (1) Zip: backup_2017-12-19-1507_Hakuna_Matata_Expeditions_ce29915215e4-uploads.zip.tmp: 1600 files added (on-disk size: 363984.8 KB)
0671.171 (1) Zip: backup_2017-12-19-1507_Hakuna_Matata_Expeditions_ce29915215e4-uploads.zip.tmp: 1700 files added (on-disk size: 363984.8 KB)
0671.172 (1) Zip: backup_2017-12-19-1507_Hakuna_Matata_Expeditions_ce29915215e4-uploads.zip.tmp: 1800 files added (on-disk size: 363984.8 KB)
0671.173 (1) Zip: backup_2017-12-19-1507_Hakuna_Matata_Expeditions_ce29915215e4-uploads.zip.tmp: 1900 files added (on-disk size: 363984.8 KB)
0671.174 (1) Zip: backup_2017-12-19-1507_Hakuna_Matata_Expeditions_ce29915215e4-uploads.zip.tmp: 2000 files added (on-disk size: 363984.8 KB)
0671.177 (1) Zip: backup_2017-12-19-1507_Hakuna_Matata_Expeditions_ce29915215e4-uploads.zip.tmp: 2100 files added (on-disk size: 363984.8 KB)
0671.180 (1) Zip: backup_2017-12-19-1507_Hakuna_Matata_Expeditions_ce29915215e4-uploads.zip.tmp: 2200 files added (on-disk size: 363984.8 KB)
0671.183 (1) Zip: backup_2017-12-19-1507_Hakuna_Matata_Expeditions_ce29915215e4-uploads.zip.tmp: 2300 files added (on-disk size: 363984.8 KB)
0671.185 (1) Zip: backup_2017-12-19-1507_Hakuna_Matata_Expeditions_ce29915215e4-uploads.zip.tmp: 2400 files added (on-disk size: 363984.8 KB)
0671.186 (1) Zip: backup_2017-12-19-1507_Hakuna_Matata_Expeditions_ce29915215e4-uploads.zip.tmp: 2500 files added (on-disk size: 363984.8 KB)
0671.187 (1) Zip: backup_2017-12-19-1507_Hakuna_Matata_Expeditions_ce29915215e4-uploads.zip.tmp: 2600 files added (on-disk size: 363984.8 KB)
0671.188 (1) Zip: backup_2017-12-19-1507_Hakuna_Matata_Expeditions_ce29915215e4-uploads.zip.tmp: 2700 files added (on-disk size: 363984.8 KB)
0671.190 (1) Zip: backup_2017-12-19-1507_Hakuna_Matata_Expeditions_ce29915215e4-uploads.zip.tmp: 2800 files added (on-disk size: 363984.8 KB)
0671.191 (1) Zip: backup_2017-12-19-1507_Hakuna_Matata_Expeditions_ce29915215e4-uploads.zip.tmp: 2900 files added (on-disk size: 363984.8 KB)
0671.192 (1) Zip: backup_2017-12-19-1507_Hakuna_Matata_Expeditions_ce29915215e4-uploads.zip.tmp: 3000 files added (on-disk size: 363984.8 KB)
0671.195 (1) Zip: backup_2017-12-19-1507_Hakuna_Matata_Expeditions_ce29915215e4-uploads.zip.tmp: 3100 files added (on-disk size: 363984.8 KB)
0671.196 (1) Zip: backup_2017-12-19-1507_Hakuna_Matata_Expeditions_ce29915215e4-uploads.zip.tmp: 3200 files added (on-disk size: 363984.8 KB)
0671.198 (1) Zip: backup_2017-12-19-1507_Hakuna_Matata_Expeditions_ce29915215e4-uploads.zip.tmp: 3300 files added (on-disk size: 363984.8 KB)
0671.200 (1) Zip: backup_2017-12-19-1507_Hakuna_Matata_Expeditions_ce29915215e4-uploads.zip.tmp: 3400 files added (on-disk size: 363984.8 KB)
0671.201 (1) Zip: backup_2017-12-19-1507_Hakuna_Matata_Expeditions_ce29915215e4-uploads.zip.tmp: 3500 files added (on-disk size: 363984.8 KB)
0671.203 (1) Zip: backup_2017-12-19-1507_Hakuna_Matata_Expeditions_ce29915215e4-uploads.zip.tmp: 3600 files added (on-disk size: 363984.8 KB)
0671.204 (1) Zip: backup_2017-12-19-1507_Hakuna_Matata_Expeditions_ce29915215e4-uploads.zip.tmp: 3700 files added (on-disk size: 363984.8 KB)
0671.207 (1) Zip: backup_2017-12-19-1507_Hakuna_Matata_Expeditions_ce29915215e4-uploads.zip.tmp: 3800 files added (on-disk size: 363984.8 KB)
0671.209 (1) Zip: backup_2017-12-19-1507_Hakuna_Matata_Expeditions_ce29915215e4-uploads.zip.tmp: 3900 files added (on-disk size: 363984.8 KB)
0671.211 (1) Zip: backup_2017-12-19-1507_Hakuna_Matata_Expeditions_ce29915215e4-uploads.zip.tmp: 4000 files added (on-disk size: 363984.8 KB)
0671.213 (1) Zip: backup_2017-12-19-1507_Hakuna_Matata_Expeditions_ce29915215e4-uploads.zip.tmp: 4100 files added (on-disk size: 363984.8 KB)
0671.215 (1) Zip: backup_2017-12-19-1507_Hakuna_Matata_Expeditions_ce29915215e4-uploads.zip.tmp: 4200 files added (on-disk size: 363984.8 KB)
0671.218 (1) Zip: backup_2017-12-19-1507_Hakuna_Matata_Expeditions_ce29915215e4-uploads.zip.tmp: 4300 files added (on-disk size: 363984.8 KB)
0671.222 (1) Zip: backup_2017-12-19-1507_Hakuna_Matata_Expeditions_ce29915215e4-uploads.zip.tmp: 4400 files added (on-disk size: 363984.8 KB)
0671.226 (1) Zip: backup_2017-12-19-1507_Hakuna_Matata_Expeditions_ce29915215e4-uploads.zip.tmp: 4500 files added (on-disk size: 363984.8 KB)
0671.229 (1) Zip: backup_2017-12-19-1507_Hakuna_Matata_Expeditions_ce29915215e4-uploads.zip.tmp: 4600 files added (on-disk size: 363984.8 KB)
0671.231 (1) Adding batch to zip file (UpdraftPlus_BinZip): over 25 MB added on this batch (25 MB, 8786 files batched, 417 (417) added so far); re-opening (prior size: 363984.8 KB)
0713.802 (1) A useful amount of data was added after this amount of zip processing: 42.7 s (normalised: 42.6 s, rate: 600.4 KB/s)
0713.804 (1) Performance is good - will increase the amount of data we attempt to batch (time=42.686414003372, normalised_time=42.640550166988, max_time=288, data points known=1, old_max_bytes=26214400, new_max_bytes=106233346)
0713.807 (1) Zip: backup_2017-12-19-1507_Hakuna_Matata_Expeditions_ce29915215e4-uploads.zip.tmp: 4700 files added (on-disk size: 389685.5 KB)
0713.811 (1) Zip: backup_2017-12-19-1507_Hakuna_Matata_Expeditions_ce29915215e4-uploads.zip.tmp: 4800 files added (on-disk size: 389685.5 KB)
0713.814 (1) Zip: backup_2017-12-19-1507_Hakuna_Matata_Expeditions_ce29915215e4-uploads.zip.tmp: 4900 files added (on-disk size: 389685.5 KB)
0713.818 (1) Zip: backup_2017-12-19-1507_Hakuna_Matata_Expeditions_ce29915215e4-uploads.zip.tmp: 5000 files added (on-disk size: 389685.5 KB)
0713.821 (1) Zip: backup_2017-12-19-1507_Hakuna_Matata_Expeditions_ce29915215e4-uploads.zip.tmp: 5100 files added (on-disk size: 389685.5 KB)
0713.823 (1) Adding batch to zip file (UpdraftPlus_BinZip): over 500 files added on this batch (34.7 MB, 8786 files batched, 501 (918) added so far); re-opening (prior size: 389685.5 KB)
0761.781 (1) Zip: backup_2017-12-19-1507_Hakuna_Matata_Expeditions_ce29915215e4-uploads.zip.tmp: 5200 files added (on-disk size: 425231.5 KB)
0761.784 (1) Zip: backup_2017-12-19-1507_Hakuna_Matata_Expeditions_ce29915215e4-uploads.zip.tmp: 5300 files added (on-disk size: 425231.5 KB)
0761.788 (1) Zip: backup_2017-12-19-1507_Hakuna_Matata_Expeditions_ce29915215e4-uploads.zip.tmp: 5400 files added (on-disk size: 425231.5 KB)
0761.791 (1) Zip: backup_2017-12-19-1507_Hakuna_Matata_Expeditions_ce29915215e4-uploads.zip.tmp: 5500 files added (on-disk size: 425231.5 KB)
0761.795 (1) Zip: backup_2017-12-19-1507_Hakuna_Matata_Expeditions_ce29915215e4-uploads.zip.tmp: 5600 files added (on-disk size: 425231.5 KB)
0761.797 (1) Adding batch to zip file (UpdraftPlus_BinZip): over 500 files added on this batch (34.3 MB, 8786 files batched, 501 (1419) added so far); re-opening (prior size: 425231.5 KB)
0813.030 (1) Zip: backup_2017-12-19-1507_Hakuna_Matata_Expeditions_ce29915215e4-uploads.zip.tmp: 5700 files added (on-disk size: 460424.6 KB)
0813.034 (1) Zip: backup_2017-12-19-1507_Hakuna_Matata_Expeditions_ce29915215e4-uploads.zip.tmp: 5800 files added (on-disk size: 460424.6 KB)
0813.037 (1) Zip: backup_2017-12-19-1507_Hakuna_Matata_Expeditions_ce29915215e4-uploads.zip.tmp: 5900 files added (on-disk size: 460424.6 KB)
0813.041 (1) Zip: backup_2017-12-19-1507_Hakuna_Matata_Expeditions_ce29915215e4-uploads.zip.tmp: 6000 files added (on-disk size: 460424.6 KB)
0813.044 (1) Zip: backup_2017-12-19-1507_Hakuna_Matata_Expeditions_ce29915215e4-uploads.zip.tmp: 6100 files added (on-disk size: 460424.6 KB)
0813.047 (1) Adding batch to zip file (UpdraftPlus_BinZip): over 500 files added on this batch (33.4 MB, 8786 files batched, 501 (1920) added so far); re-opening (prior size: 460424.6 KB)
0868.036 (1) Zip: backup_2017-12-19-1507_Hakuna_Matata_Expeditions_ce29915215e4-uploads.zip.tmp: 6200 files added (on-disk size: 494727.2 KB)
0868.040 (1) Zip: backup_2017-12-19-1507_Hakuna_Matata_Expeditions_ce29915215e4-uploads.zip.tmp: 6300 files added (on-disk size: 494727.2 KB)
0868.044 (1) Zip: backup_2017-12-19-1507_Hakuna_Matata_Expeditions_ce29915215e4-uploads.zip.tmp: 6400 files added (on-disk size: 494727.2 KB)
0868.045 (1) Adding batch to zip file (UpdraftPlus_BinZip): possibly approaching split limit (16 MB, 267 (2187) files added so far); last ratio: 1; re-opening (prior size: 494727.2 KB)
0921.904 (1) Zip size is at/near split limit (499.2 MB / 500 MB) - bumping index (from: 0)
0928.275 (1) Created uploads zip (0) - 511141.1 KB in 251 s (2036.5 KB/s) (checksums: sha1: 0534994424455e37afe28458d3d785eecb6782ef, sha256: dd81ad89e50ccde6c466597e642cde0771230d3132a354cb927b9a1d8e12e364)
0928.277 (1) Adding batch to zip file (UpdraftPlus_BinZip): over 2.0 seconds have passed since the last write (0 MB, 1 (2188) files added so far); re-opening (prior size: 0 KB)
0928.287 (1) backup_2017-12-19-1507_Hakuna_Matata_Expeditions_ce29915215e4-uploads2.zip.tmp: size is now: 0.00 MB
0928.292 (1) Zip: backup_2017-12-19-1507_Hakuna_Matata_Expeditions_ce29915215e4-uploads2.zip.tmp: 6500 files added (on-disk size: 7 KB)
0928.296 (1) Zip: backup_2017-12-19-1507_Hakuna_Matata_Expeditions_ce29915215e4-uploads2.zip.tmp: 6600 files added (on-disk size: 7 KB)
0928.300 (1) Zip: backup_2017-12-19-1507_Hakuna_Matata_Expeditions_ce29915215e4-uploads2.zip.tmp: 6700 files added (on-disk size: 7 KB)
0928.304 (1) Zip: backup_2017-12-19-1507_Hakuna_Matata_Expeditions_ce29915215e4-uploads2.zip.tmp: 6800 files added (on-disk size: 7 KB)
0928.308 (1) Zip: backup_2017-12-19-1507_Hakuna_Matata_Expeditions_ce29915215e4-uploads2.zip.tmp: 6900 files added (on-disk size: 7 KB)
0928.309 (1) Adding batch to zip file (UpdraftPlus_BinZip): over 500 files added on this batch (32.4 MB, 8786 files batched, 501 (2689) added so far); re-opening (prior size: 7 KB)
0935.234 (1) backup_2017-12-19-1507_Hakuna_Matata_Expeditions_ce29915215e4-uploads2.zip.tmp: size is now: 32.40 MB
0935.240 (1) Zip: backup_2017-12-19-1507_Hakuna_Matata_Expeditions_ce29915215e4-uploads2.zip.tmp: 7000 files added (on-disk size: 33228.5 KB)
0935.243 (1) Zip: backup_2017-12-19-1507_Hakuna_Matata_Expeditions_ce29915215e4-uploads2.zip.tmp: 7100 files added (on-disk size: 33228.5 KB)
0935.247 (1) Zip: backup_2017-12-19-1507_Hakuna_Matata_Expeditions_ce29915215e4-uploads2.zip.tmp: 7200 files added (on-disk size: 33228.5 KB)
0935.251 (1) Zip: backup_2017-12-19-1507_Hakuna_Matata_Expeditions_ce29915215e4-uploads2.zip.tmp: 7300 files added (on-disk size: 33228.5 KB)
0935.254 (1) Zip: backup_2017-12-19-1507_Hakuna_Matata_Expeditions_ce29915215e4-uploads2.zip.tmp: 7400 files added (on-disk size: 33228.5 KB)
0935.256 (1) Adding batch to zip file (UpdraftPlus_BinZip): over 500 files added on this batch (33.4 MB, 8786 files batched, 501 (3190) added so far); re-opening (prior size: 33228.5 KB)
0946.782 (1) backup_2017-12-19-1507_Hakuna_Matata_Expeditions_ce29915215e4-uploads2.zip.tmp: size is now: 65.90 MB
0946.788 (1) Zip: backup_2017-12-19-1507_Hakuna_Matata_Expeditions_ce29915215e4-uploads2.zip.tmp: 7500 files added (on-disk size: 67511.1 KB)
0946.791 (1) Zip: backup_2017-12-19-1507_Hakuna_Matata_Expeditions_ce29915215e4-uploads2.zip.tmp: 7600 files added (on-disk size: 67511.1 KB)
0946.795 (1) Zip: backup_2017-12-19-1507_Hakuna_Matata_Expeditions_ce29915215e4-uploads2.zip.tmp: 7700 files added (on-disk size: 67511.1 KB)
0946.798 (1) Zip: backup_2017-12-19-1507_Hakuna_Matata_Expeditions_ce29915215e4-uploads2.zip.tmp: 7800 files added (on-disk size: 67511.1 KB)
0946.802 (1) Zip: backup_2017-12-19-1507_Hakuna_Matata_Expeditions_ce29915215e4-uploads2.zip.tmp: 7900 files added (on-disk size: 67511.1 KB)
0946.803 (1) Adding batch to zip file (UpdraftPlus_BinZip): over 500 files added on this batch (31.5 MB, 8786 files batched, 501 (3691) added so far); re-opening (prior size: 67511.1 KB)
0960.873 (1) backup_2017-12-19-1507_Hakuna_Matata_Expeditions_ce29915215e4-uploads2.zip.tmp: size is now: 97.50 MB
0960.878 (1) Zip: backup_2017-12-19-1507_Hakuna_Matata_Expeditions_ce29915215e4-uploads2.zip.tmp: 8000 files added (on-disk size: 99860.8 KB)
0960.882 (1) Zip: backup_2017-12-19-1507_Hakuna_Matata_Expeditions_ce29915215e4-uploads2.zip.tmp: 8100 files added (on-disk size: 99860.8 KB)
0960.885 (1) Zip: backup_2017-12-19-1507_Hakuna_Matata_Expeditions_ce29915215e4-uploads2.zip.tmp: 8200 files added (on-disk size: 99860.8 KB)
0960.888 (1) Zip: backup_2017-12-19-1507_Hakuna_Matata_Expeditions_ce29915215e4-uploads2.zip.tmp: 8300 files added (on-disk size: 99860.8 KB)
0960.892 (1) Zip: backup_2017-12-19-1507_Hakuna_Matata_Expeditions_ce29915215e4-uploads2.zip.tmp: 8400 files added (on-disk size: 99860.8 KB)
0960.893 (1) Adding batch to zip file (UpdraftPlus_BinZip): over 500 files added on this batch (38.1 MB, 8786 files batched, 501 (4192) added so far); re-opening (prior size: 99860.8 KB)
1035.572 (2) Opened log file at time: Tue, 19 Dec 2017 13:25:00 +0000 on http://hme.top1.pp.ua
1035.573 (2) UpdraftPlus WordPress backup plugin (https://updraftplus.com): 1.13.16 WP: 4.9.1 PHP: 5.6.31 (litespeed, Linux web279.default-host.net 3.10.0-614.10.2.lve1.4.56.el7.x86_64 #1 SMP Wed Jun 21 18:37:06 EDT 2017 x86_64) MySQL: 5.7.16 WPLANG: ru_RU Server: Apache safe_mode: 0 max_execution_time: 900 memory_limit: 256M (used: 60.2M | 61.5M) multisite: N openssl: OpenSSL 1.0.1e-fips 11 Feb 2013 mcrypt: Y LANG:  ZipArchive::addFile: Y
1035.574 (2) Free space on disk containing Updraft's temporary directory: 597297.5 MB
1035.575 (2) Backup run: resumption=2, nonce=ce29915215e4, begun at=1513688864 (1036s ago), job type=backup, previous check-in=298.6s
1035.577 (2) Scheduling a resumption (3) after 364 seconds (1513690264) in case this run gets aborted
1035.585 (2) Checking if we have a zip executable available
1035.586 (2) Zip engine: found/will use a binary zip: /usr/bin/zip
1035.587 (2) Creation of backups of directories: had begun; will resume
1035.589 (2) Beginning creation of dump of plugins (split every: 500 MB)
1035.590 (2) backup_2017-12-19-1507_Hakuna_Matata_Expeditions_ce29915215e4-plugins.zip: this file has already been created (age: 1020 s)
1035.592 (2) Beginning creation of dump of themes (split every: 500 MB)
1035.592 (2) backup_2017-12-19-1507_Hakuna_Matata_Expeditions_ce29915215e4-themes.zip: this file has already been created (age: 1017 s)
1035.594 (2) Exclusion option setting (uploads): backup*,*backups,backwpup*,wp-clone,snapshots
1035.595 (2) Looking for candidates to back up in: /home/top1ua/top1.pp.ua/hme/wp-content/uploads
1035.596 (2) finding files: 2017: adding to list (1)
1035.596 (2) finding files: fusion-scripts: adding to list (2)
1035.597 (2) finding files: fusion-styles: adding to list (3)
1035.598 (2) finding files: 2016: adding to list (4)
1035.598 (2) finding files: fusionredux: adding to list (5)
1035.599 (2) Beginning creation of dump of uploads (split every: 500 MB)
1035.600 (2) File exists (/home/top1ua/top1.pp.ua/hme/wp-content/updraft/backup_2017-12-19-1507_Hakuna_Matata_Expeditions_ce29915215e4-uploads2.zip.tmp), but was apparently not modified within the last 30 seconds, so we assume that any previous run has now terminated (time_mod=1513689842, time_now=1513689900, diff=58)
1035.782 (2) backup_2017-12-19-1507_Hakuna_Matata_Expeditions_ce29915215e4-uploads.zip: Zip file already exists, with 6419 files
1035.851 (2) backup_2017-12-19-1507_Hakuna_Matata_Expeditions_ce29915215e4-uploads2.zip.tmp: Zip file already exists, with 8424 files
1035.956 (2) Total entities for the zip file: 15 directories, 8786 files (0 skipped as non-modified), 660 MB
1035.958 (2) Zip: backup_2017-12-19-1507_Hakuna_Matata_Expeditions_ce29915215e4-uploads2.zip.tmp: 100 files added (on-disk size: 136810.4 KB)
1035.959 (2) Zip: backup_2017-12-19-1507_Hakuna_Matata_Expeditions_ce29915215e4-uploads2.zip.tmp: 200 files added (on-disk size: 136810.4 KB)
1035.960 (2) Zip: backup_2017-12-19-1507_Hakuna_Matata_Expeditions_ce29915215e4-uploads2.zip.tmp: 300 files added (on-disk size: 136810.4 KB)
1035.961 (2) Zip: backup_2017-12-19-1507_Hakuna_Matata_Expeditions_ce29915215e4-uploads2.zip.tmp: 400 files added (on-disk size: 136810.4 KB)
1035.962 (2) Zip: backup_2017-12-19-1507_Hakuna_Matata_Expeditions_ce29915215e4-uploads2.zip.tmp: 500 files added (on-disk size: 136810.4 KB)
1035.963 (2) Zip: backup_2017-12-19-1507_Hakuna_Matata_Expeditions_ce29915215e4-uploads2.zip.tmp: 600 files added (on-disk size: 136810.4 KB)
1035.964 (2) Zip: backup_2017-12-19-1507_Hakuna_Matata_Expeditions_ce29915215e4-uploads2.zip.tmp: 700 files added (on-disk size: 136810.4 KB)
1035.966 (2) Zip: backup_2017-12-19-1507_Hakuna_Matata_Expeditions_ce29915215e4-uploads2.zip.tmp: 800 files added (on-disk size: 136810.4 KB)
1035.967 (2) Zip: backup_2017-12-19-1507_Hakuna_Matata_Expeditions_ce29915215e4-uploads2.zip.tmp: 900 files added (on-disk size: 136810.4 KB)
1035.968 (2) Zip: backup_2017-12-19-1507_Hakuna_Matata_Expeditions_ce29915215e4-uploads2.zip.tmp: 1000 files added (on-disk size: 136810.4 KB)
1035.970 (2) Zip: backup_2017-12-19-1507_Hakuna_Matata_Expeditions_ce29915215e4-uploads2.zip.tmp: 1100 files added (on-disk size: 136810.4 KB)
1035.971 (2) Zip: backup_2017-12-19-1507_Hakuna_Matata_Expeditions_ce29915215e4-uploads2.zip.tmp: 1200 files added (on-disk size: 136810.4 KB)
1035.972 (2) Zip: backup_2017-12-19-1507_Hakuna_Matata_Expeditions_ce29915215e4-uploads2.zip.tmp: 1300 files added (on-disk size: 136810.4 KB)
1035.973 (2) Zip: backup_2017-12-19-1507_Hakuna_Matata_Expeditions_ce29915215e4-uploads2.zip.tmp: 1400 files added (on-disk size: 136810.4 KB)
1035.974 (2) Zip: backup_2017-12-19-1507_Hakuna_Matata_Expeditions_ce29915215e4-uploads2.zip.tmp: 1500 files added (on-disk size: 136810.4 KB)
1035.975 (2) Zip: backup_2017-12-19-1507_Hakuna_Matata_Expeditions_ce29915215e4-uploads2.zip.tmp: 1600 files added (on-disk size: 136810.4 KB)
1035.976 (2) Zip: backup_2017-12-19-1507_Hakuna_Matata_Expeditions_ce29915215e4-uploads2.zip.tmp: 1700 files added (on-disk size: 136810.4 KB)
1035.977 (2) Zip: backup_2017-12-19-1507_Hakuna_Matata_Expeditions_ce29915215e4-uploads2.zip.tmp: 1800 files added (on-disk size: 136810.4 KB)
1035.978 (2) Zip: backup_2017-12-19-1507_Hakuna_Matata_Expeditions_ce29915215e4-uploads2.zip.tmp: 1900 files added (on-disk size: 136810.4 KB)
1035.979 (2) Zip: backup_2017-12-19-1507_Hakuna_Matata_Expeditions_ce29915215e4-uploads2.zip.tmp: 2000 files added (on-disk size: 136810.4 KB)
1035.982 (2) Zip: backup_2017-12-19-1507_Hakuna_Matata_Expeditions_ce29915215e4-uploads2.zip.tmp: 2100 files added (on-disk size: 136810.4 KB)
1035.983 (2) Zip: backup_2017-12-19-1507_Hakuna_Matata_Expeditions_ce29915215e4-uploads2.zip.tmp: 2200 files added (on-disk size: 136810.4 KB)
1035.984 (2) Zip: backup_2017-12-19-1507_Hakuna_Matata_Expeditions_ce29915215e4-uploads2.zip.tmp: 2300 files added (on-disk size: 136810.4 KB)
1035.985 (2) Zip: backup_2017-12-19-1507_Hakuna_Matata_Expeditions_ce29915215e4-uploads2.zip.tmp: 2400 files added (on-disk size: 136810.4 KB)
1035.986 (2) Zip: backup_2017-12-19-1507_Hakuna_Matata_Expeditions_ce29915215e4-uploads2.zip.tmp: 2500 files added (on-disk size: 136810.4 KB)
1035.987 (2) Zip: backup_2017-12-19-1507_Hakuna_Matata_Expeditions_ce29915215e4-uploads2.zip.tmp: 2600 files added (on-disk size: 136810.4 KB)
1035.988 (2) Zip: backup_2017-12-19-1507_Hakuna_Matata_Expeditions_ce29915215e4-uploads2.zip.tmp: 2700 files added (on-disk size: 136810.4 KB)
1035.989 (2) Zip: backup_2017-12-19-1507_Hakuna_Matata_Expeditions_ce29915215e4-uploads2.zip.tmp: 2800 files added (on-disk size: 136810.4 KB)
1035.990 (2) Zip: backup_2017-12-19-1507_Hakuna_Matata_Expeditions_ce29915215e4-uploads2.zip.tmp: 2900 files added (on-disk size: 136810.4 KB)
1035.991 (2) Zip: backup_2017-12-19-1507_Hakuna_Matata_Expeditions_ce29915215e4-uploads2.zip.tmp: 3000 files added (on-disk size: 136810.4 KB)
1035.993 (2) Zip: backup_2017-12-19-1507_Hakuna_Matata_Expeditions_ce29915215e4-uploads2.zip.tmp: 3100 files added (on-disk size: 136810.4 KB)
1035.994 (2) Zip: backup_2017-12-19-1507_Hakuna_Matata_Expeditions_ce29915215e4-uploads2.zip.tmp: 3200 files added (on-disk size: 136810.4 KB)
1035.995 (2) Zip: backup_2017-12-19-1507_Hakuna_Matata_Expeditions_ce29915215e4-uploads2.zip.tmp: 3300 files added (on-disk size: 136810.4 KB)
1035.997 (2) Zip: backup_2017-12-19-1507_Hakuna_Matata_Expeditions_ce29915215e4-uploads2.zip.tmp: 3400 files added (on-disk size: 136810.4 KB)
1035.998 (2) Zip: backup_2017-12-19-1507_Hakuna_Matata_Expeditions_ce29915215e4-uploads2.zip.tmp: 3500 files added (on-disk size: 136810.4 KB)
1035.999 (2) Zip: backup_2017-12-19-1507_Hakuna_Matata_Expeditions_ce29915215e4-uploads2.zip.tmp: 3600 files added (on-disk size: 136810.4 KB)
1036.000 (2) Zip: backup_2017-12-19-1507_Hakuna_Matata_Expeditions_ce29915215e4-uploads2.zip.tmp: 3700 files added (on-disk size: 136810.4 KB)
1036.001 (2) Zip: backup_2017-12-19-1507_Hakuna_Matata_Expeditions_ce29915215e4-uploads2.zip.tmp: 3800 files added (on-disk size: 136810.4 KB)
1036.002 (2) Zip: backup_2017-12-19-1507_Hakuna_Matata_Expeditions_ce29915215e4-uploads2.zip.tmp: 3900 files added (on-disk size: 136810.4 KB)
1036.003 (2) Zip: backup_2017-12-19-1507_Hakuna_Matata_Expeditions_ce29915215e4-uploads2.zip.tmp: 4000 files added (on-disk size: 136810.4 KB)
1036.005 (2) Zip: backup_2017-12-19-1507_Hakuna_Matata_Expeditions_ce29915215e4-uploads2.zip.tmp: 4100 files added (on-disk size: 136810.4 KB)
1036.007 (2) Zip: backup_2017-12-19-1507_Hakuna_Matata_Expeditions_ce29915215e4-uploads2.zip.tmp: 4200 files added (on-disk size: 136810.4 KB)
1036.008 (2) Zip: backup_2017-12-19-1507_Hakuna_Matata_Expeditions_ce29915215e4-uploads2.zip.tmp: 4300 files added (on-disk size: 136810.4 KB)
1036.009 (2) Zip: backup_2017-12-19-1507_Hakuna_Matata_Expeditions_ce29915215e4-uploads2.zip.tmp: 4400 files added (on-disk size: 136810.4 KB)
1036.010 (2) Zip: backup_2017-12-19-1507_Hakuna_Matata_Expeditions_ce29915215e4-uploads2.zip.tmp: 4500 files added (on-disk size: 136810.4 KB)
1036.011 (2) Zip: backup_2017-12-19-1507_Hakuna_Matata_Expeditions_ce29915215e4-uploads2.zip.tmp: 4600 files added (on-disk size: 136810.4 KB)
1036.012 (2) Zip: backup_2017-12-19-1507_Hakuna_Matata_Expeditions_ce29915215e4-uploads2.zip.tmp: 4700 files added (on-disk size: 136810.4 KB)
1036.013 (2) Zip: backup_2017-12-19-1507_Hakuna_Matata_Expeditions_ce29915215e4-uploads2.zip.tmp: 4800 files added (on-disk size: 136810.4 KB)
1036.014 (2) Zip: backup_2017-12-19-1507_Hakuna_Matata_Expeditions_ce29915215e4-uploads2.zip.tmp: 4900 files added (on-disk size: 136810.4 KB)
1036.015 (2) Zip: backup_2017-12-19-1507_Hakuna_Matata_Expeditions_ce29915215e4-uploads2.zip.tmp: 5000 files added (on-disk size: 136810.4 KB)
1036.017 (2) Zip: backup_2017-12-19-1507_Hakuna_Matata_Expeditions_ce29915215e4-uploads2.zip.tmp: 5100 files added (on-disk size: 136810.4 KB)
1036.018 (2) Zip: backup_2017-12-19-1507_Hakuna_Matata_Expeditions_ce29915215e4-uploads2.zip.tmp: 5200 files added (on-disk size: 136810.4 KB)
1036.020 (2) Zip: backup_2017-12-19-1507_Hakuna_Matata_Expeditions_ce29915215e4-uploads2.zip.tmp: 5300 files added (on-disk size: 136810.4 KB)
1036.021 (2) Zip: backup_2017-12-19-1507_Hakuna_Matata_Expeditions_ce29915215e4-uploads2.zip.tmp: 5400 files added (on-disk size: 136810.4 KB)
1036.022 (2) Zip: backup_2017-12-19-1507_Hakuna_Matata_Expeditions_ce29915215e4-uploads2.zip.tmp: 5500 files added (on-disk size: 136810.4 KB)
1036.023 (2) Zip: backup_2017-12-19-1507_Hakuna_Matata_Expeditions_ce29915215e4-uploads2.zip.tmp: 5600 files added (on-disk size: 136810.4 KB)
1036.024 (2) Zip: backup_2017-12-19-1507_Hakuna_Matata_Expeditions_ce29915215e4-uploads2.zip.tmp: 5700 files added (on-disk size: 136810.4 KB)
1036.025 (2) Zip: backup_2017-12-19-1507_Hakuna_Matata_Expeditions_ce29915215e4-uploads2.zip.tmp: 5800 files added (on-disk size: 136810.4 KB)
1036.026 (2) Zip: backup_2017-12-19-1507_Hakuna_Matata_Expeditions_ce29915215e4-uploads2.zip.tmp: 5900 files added (on-disk size: 136810.4 KB)
1036.027 (2) Zip: backup_2017-12-19-1507_Hakuna_Matata_Expeditions_ce29915215e4-uploads2.zip.tmp: 6000 files added (on-disk size: 136810.4 KB)
1036.030 (2) Zip: backup_2017-12-19-1507_Hakuna_Matata_Expeditions_ce29915215e4-uploads2.zip.tmp: 6100 files added (on-disk size: 136810.4 KB)
1036.031 (2) Zip: backup_2017-12-19-1507_Hakuna_Matata_Expeditions_ce29915215e4-uploads2.zip.tmp: 6200 files added (on-disk size: 136810.4 KB)
1036.032 (2) Zip: backup_2017-12-19-1507_Hakuna_Matata_Expeditions_ce29915215e4-uploads2.zip.tmp: 6300 files added (on-disk size: 136810.4 KB)
1036.033 (2) Zip: backup_2017-12-19-1507_Hakuna_Matata_Expeditions_ce29915215e4-uploads2.zip.tmp: 6400 files added (on-disk size: 136810.4 KB)
1036.034 (2) Zip: backup_2017-12-19-1507_Hakuna_Matata_Expeditions_ce29915215e4-uploads2.zip.tmp: 6500 files added (on-disk size: 136810.4 KB)
1036.035 (2) Zip: backup_2017-12-19-1507_Hakuna_Matata_Expeditions_ce29915215e4-uploads2.zip.tmp: 6600 files added (on-disk size: 136810.4 KB)
1036.036 (2) Zip: backup_2017-12-19-1507_Hakuna_Matata_Expeditions_ce29915215e4-uploads2.zip.tmp: 6700 files added (on-disk size: 136810.4 KB)
1036.037 (2) Zip: backup_2017-12-19-1507_Hakuna_Matata_Expeditions_ce29915215e4-uploads2.zip.tmp: 6800 files added (on-disk size: 136810.4 KB)
1036.038 (2) Zip: backup_2017-12-19-1507_Hakuna_Matata_Expeditions_ce29915215e4-uploads2.zip.tmp: 6900 files added (on-disk size: 136810.4 KB)
1036.039 (2) Zip: backup_2017-12-19-1507_Hakuna_Matata_Expeditions_ce29915215e4-uploads2.zip.tmp: 7000 files added (on-disk size: 136810.4 KB)
1036.042 (2) Zip: backup_2017-12-19-1507_Hakuna_Matata_Expeditions_ce29915215e4-uploads2.zip.tmp: 7100 files added (on-disk size: 136810.4 KB)
1036.043 (2) Zip: backup_2017-12-19-1507_Hakuna_Matata_Expeditions_ce29915215e4-uploads2.zip.tmp: 7200 files added (on-disk size: 136810.4 KB)
1036.044 (2) Zip: backup_2017-12-19-1507_Hakuna_Matata_Expeditions_ce29915215e4-uploads2.zip.tmp: 7300 files added (on-disk size: 136810.4 KB)
1036.045 (2) Zip: backup_2017-12-19-1507_Hakuna_Matata_Expeditions_ce29915215e4-uploads2.zip.tmp: 7400 files added (on-disk size: 136810.4 KB)
1036.046 (2) Zip: backup_2017-12-19-1507_Hakuna_Matata_Expeditions_ce29915215e4-uploads2.zip.tmp: 7500 files added (on-disk size: 136810.4 KB)
1036.047 (2) Zip: backup_2017-12-19-1507_Hakuna_Matata_Expeditions_ce29915215e4-uploads2.zip.tmp: 7600 files added (on-disk size: 136810.4 KB)
1036.048 (2) Zip: backup_2017-12-19-1507_Hakuna_Matata_Expeditions_ce29915215e4-uploads2.zip.tmp: 7700 files added (on-disk size: 136810.4 KB)
1036.049 (2) Zip: backup_2017-12-19-1507_Hakuna_Matata_Expeditions_ce29915215e4-uploads2.zip.tmp: 7800 files added (on-disk size: 136810.4 KB)
1036.050 (2) Zip: backup_2017-12-19-1507_Hakuna_Matata_Expeditions_ce29915215e4-uploads2.zip.tmp: 7900 files added (on-disk size: 136810.4 KB)
1036.052 (2) Zip: backup_2017-12-19-1507_Hakuna_Matata_Expeditions_ce29915215e4-uploads2.zip.tmp: 8000 files added (on-disk size: 136810.4 KB)
1036.054 (2) Zip: backup_2017-12-19-1507_Hakuna_Matata_Expeditions_ce29915215e4-uploads2.zip.tmp: 8100 files added (on-disk size: 136810.4 KB)
1036.055 (2) Zip: backup_2017-12-19-1507_Hakuna_Matata_Expeditions_ce29915215e4-uploads2.zip.tmp: 8200 files added (on-disk size: 136810.4 KB)
1036.057 (2) Zip: backup_2017-12-19-1507_Hakuna_Matata_Expeditions_ce29915215e4-uploads2.zip.tmp: 8300 files added (on-disk size: 136810.4 KB)
1036.058 (2) Zip: backup_2017-12-19-1507_Hakuna_Matata_Expeditions_ce29915215e4-uploads2.zip.tmp: 8400 files added (on-disk size: 136810.4 KB)
1036.061 (2) Zip: backup_2017-12-19-1507_Hakuna_Matata_Expeditions_ce29915215e4-uploads2.zip.tmp: 8500 files added (on-disk size: 136810.4 KB)
1036.065 (2) Zip: backup_2017-12-19-1507_Hakuna_Matata_Expeditions_ce29915215e4-uploads2.zip.tmp: 8600 files added (on-disk size: 136810.4 KB)
1036.068 (2) Zip: backup_2017-12-19-1507_Hakuna_Matata_Expeditions_ce29915215e4-uploads2.zip.tmp: 8700 files added (on-disk size: 136810.4 KB)
1057.683 (2) Created uploads zip (1) - 163665.1 KB in 22.1 s (7411.5 KB/s) (sha1: c12289c645a47b2f27d67ba02c3f25cd7a1584f3, sha256: 7bd2419d5fb45d80cce49e0e9ec1d4cb57fb1494fbb1ee8c621c565673796fc5)
1057.686 (2) Beginning backup of other directories found in the content directory (index: 0)
1057.687 (2) Exclusion option setting (others): upgrade,cache,updraft,backup*,*backups,mysql.sql,debug.log
1057.688 (2) Looking for candidates to back up in: /home/top1ua/top1.pp.ua/hme/wp-content
1057.688 (2) finding files: index.php: adding to list (1)
1057.689 (2) finding files: plugins: skipping: this is the plugins directory
1057.690 (2) finding files: languages: adding to list (2)
1057.691 (2) finding files: upgrade: skipping: excluded by options
1057.691 (2) finding files: uploads: skipping: this is the uploads directory
1057.692 (2) finding files: updraft: skipping: this is the updraft directory
1057.693 (2) finding files: themes: skipping: this is the themes directory
1057.698 (2) Total entities for the zip file: 3 directories, 33 files (0 skipped as non-modified), 3.1 MB
1057.870 (2) backup_2017-12-19-1507_Hakuna_Matata_Expeditions_ce29915215e4-others.zip.tmp: size is now: 0.80 MB
1057.885 (2) Created others zip (0) - 841.9 KB in 0.2 s (4402.4 KB/s) (sha1: ff2b724c51211870fec6147259ccfc339e5cfa5e, sha256: eb9bf59b54a49bf387d962abc86b02c32cf17fbb53fbd8eb2398745921a88844)
1057.890 (2) Saving backup status to database (elements: 9)
1057.892 (2) Resuming creation of database dump (WordPress DB)
1057.894 (2) Testing: /usr/bin/mysqldump
1059.161 (2) Output: /*!40103 SET @OLD_TIME_ZONE=@@TIME_ZONE */;\n/*!40103 SET TIME_ZONE='+00:00' */;\n/*!40014 SET @OLD_UNIQUE_CHECKS=@@UNIQUE_CHECKS, UNIQUE_CHECKS=0 */;\n/*!40014 SET @OLD_FOREIGN_KEY_CHECKS=@@FOREIGN_KEY_CHECKS, FOREIGN_KEY_CHECKS=0 */;\n/*!40101 SET @OLD_SQL_MODE=@@SQL_MODE, SQL_MODE='NO_AUTO_VALUE_ON_ZERO' */;\n/*!40111 SET @OLD_SQL_NOTES=@@SQL_NOTES, SQL_NOTES=0 */;\nDROP TABLE IF EXISTS `hm_options`;\n/*!40101 SET @saved_cs_client     = @@character_set_client */;\n/*!40101 SET character_set_client = utf8 */;\nCRE (truncated - 1191 bytes total)
1059.164 (2) Working binary mysqldump found: /usr/bin/mysqldump
1059.172 (2) Table hm_options: Total expected rows (approximate): 427
1059.521 (2) Table hm_options: Total rows added: 431 in 0.35 seconds
1059.522 (2) Table hm_options: finishing file (backup_2017-12-19-1507_Hakuna_Matata_Expeditions_ce29915215e4-db-table-hm_options.table.gz - 226.3 KB)
1059.526 (2) Table hm_users: Total expected rows (approximate): 3
1059.528 (2) Table hm_users: Total rows added: 4 in 0.00 seconds
1059.529 (2) Table hm_users: finishing file (backup_2017-12-19-1507_Hakuna_Matata_Expeditions_ce29915215e4-db-table-hm_users.table.gz - 0.8 KB)
1059.532 (2) Table hm_usermeta: Total expected rows (approximate): 96
1059.536 (2) Table hm_usermeta: Total rows added: 104 in 0.00 seconds
1059.537 (2) Table hm_usermeta: finishing file (backup_2017-12-19-1507_Hakuna_Matata_Expeditions_ce29915215e4-db-table-hm_usermeta.table.gz - 4.8 KB)
1059.541 (2) Table hm_commentmeta: Total expected rows (approximate): 0
1059.543 (2) Table hm_commentmeta: Total rows added: 0 in 0.00 seconds
1059.544 (2) Table hm_commentmeta: finishing file (backup_2017-12-19-1507_Hakuna_Matata_Expeditions_ce29915215e4-db-table-hm_commentmeta.table.gz - 0.4 KB)
1059.547 (2) Table hm_comments: Total expected rows (approximate): 0
1059.549 (2) Table hm_comments: Total rows added: 0 in 0.00 seconds
1059.549 (2) Table hm_comments: finishing file (backup_2017-12-19-1507_Hakuna_Matata_Expeditions_ce29915215e4-db-table-hm_comments.table.gz - 0.5 KB)
1059.553 (2) Table hm_links: Total expected rows (approximate): 0
1059.555 (2) Table hm_links: Total rows added: 0 in 0.00 seconds
1059.556 (2) Table hm_links: finishing file (backup_2017-12-19-1507_Hakuna_Matata_Expeditions_ce29915215e4-db-table-hm_links.table.gz - 0.4 KB)
1059.559 (2) Table hm_postmeta: Total expected rows (approximate): 8561
1060.731 (2) Table hm_postmeta: binary mysqldump finished (writes: 35) in 1.17 seconds
1060.733 (2) Table hm_postmeta: finishing file (backup_2017-12-19-1507_Hakuna_Matata_Expeditions_ce29915215e4-db-table-hm_postmeta.table.gz - 411.8 KB)
1060.737 (2) Table hm_posts: Total expected rows (approximate): 723
1061.036 (2) Table hm_posts: Total rows added: 979 in 0.30 seconds
1061.038 (2) Table hm_posts: finishing file (backup_2017-12-19-1507_Hakuna_Matata_Expeditions_ce29915215e4-db-table-hm_posts.table.gz - 581.3 KB)
1061.041 (2) Table hm_term_relationships: Total expected rows (approximate): 109
1061.044 (2) Table hm_term_relationships: Total rows added: 128 in 0.00 seconds
1061.045 (2) Table hm_term_relationships: finishing file (backup_2017-12-19-1507_Hakuna_Matata_Expeditions_ce29915215e4-db-table-hm_term_relationships.table.gz - 0.8 KB)
1061.048 (2) Table hm_term_taxonomy: Total expected rows (approximate): 61
1061.052 (2) Table hm_term_taxonomy: Total rows added: 64 in 0.00 seconds
1061.053 (2) Table hm_term_taxonomy: finishing file (backup_2017-12-19-1507_Hakuna_Matata_Expeditions_ce29915215e4-db-table-hm_term_taxonomy.table.gz - 8.3 KB)
1061.056 (2) Table hm_termmeta: Total expected rows (approximate): 0
1061.058 (2) Table hm_termmeta: Total rows added: 0 in 0.00 seconds
1061.058 (2) Table hm_termmeta: finishing file (backup_2017-12-19-1507_Hakuna_Matata_Expeditions_ce29915215e4-db-table-hm_termmeta.table.gz - 0.4 KB)
1061.061 (2) Table hm_terms: Total expected rows (approximate): 60
1061.064 (2) Table hm_terms: Total rows added: 64 in 0.00 seconds
1061.065 (2) Table hm_terms: finishing file (backup_2017-12-19-1507_Hakuna_Matata_Expeditions_ce29915215e4-db-table-hm_terms.table.gz - 1.4 KB)
1061.068 (2) Table hm_duplicator_packages: Total expected rows (approximate): 1
1061.070 (2) Table hm_duplicator_packages: Total rows added: 1 in 0.00 seconds
1061.071 (2) Table hm_duplicator_packages: finishing file (backup_2017-12-19-1507_Hakuna_Matata_Expeditions_ce29915215e4-db-table-hm_duplicator_packages.table.gz - 1.4 KB)
1061.074 (2) Table hm_redirection_404: Total expected rows (approximate): 5
1061.076 (2) Table hm_redirection_404: Total rows added: 5 in 0.00 seconds
1061.077 (2) Table hm_redirection_404: finishing file (backup_2017-12-19-1507_Hakuna_Matata_Expeditions_ce29915215e4-db-table-hm_redirection_404.table.gz - 1 KB)
1061.080 (2) Table hm_redirection_groups: Total expected rows (approximate): 2
1061.083 (2) Table hm_redirection_groups: Total rows added: 2 in 0.00 seconds
1061.083 (2) Table hm_redirection_groups: finishing file (backup_2017-12-19-1507_Hakuna_Matata_Expeditions_ce29915215e4-db-table-hm_redirection_groups.table.gz - 0.5 KB)
1061.086 (2) Table hm_redirection_items: Total expected rows (approximate): 1
1061.088 (2) Table hm_redirection_items: Total rows added: 0 in 0.00 seconds
1061.089 (2) Table hm_redirection_items: finishing file (backup_2017-12-19-1507_Hakuna_Matata_Expeditions_ce29915215e4-db-table-hm_redirection_items.table.gz - 0.5 KB)
1061.092 (2) Table hm_redirection_logs: Total expected rows (approximate): 2
1061.095 (2) Table hm_redirection_logs: Total rows added: 1 in 0.00 seconds
1061.095 (2) Table hm_redirection_logs: finishing file (backup_2017-12-19-1507_Hakuna_Matata_Expeditions_ce29915215e4-db-table-hm_redirection_logs.table.gz - 0.6 KB)
1061.098 (2) Table hm_smush_dir_images: Total expected rows (approximate): 0
1061.100 (2) Table hm_smush_dir_images: Total rows added: 0 in 0.00 seconds
1061.101 (2) Table hm_smush_dir_images: finishing file (backup_2017-12-19-1507_Hakuna_Matata_Expeditions_ce29915215e4-db-table-hm_smush_dir_images.table.gz - 0.4 KB)
1061.104 (2) Table hm_yoast_seo_links: Total expected rows (approximate): 641
1061.116 (2) Table hm_yoast_seo_links: Total rows added: 641 in 0.01 seconds
1061.117 (2) Table hm_yoast_seo_links: finishing file (backup_2017-12-19-1507_Hakuna_Matata_Expeditions_ce29915215e4-db-table-hm_yoast_seo_links.table.gz - 5.3 KB)
1061.120 (2) Table hm_yoast_seo_meta: Total expected rows (approximate): 184
1061.123 (2) Table hm_yoast_seo_meta: Total rows added: 184 in 0.00 seconds
1061.124 (2) Table hm_yoast_seo_meta: finishing file (backup_2017-12-19-1507_Hakuna_Matata_Expeditions_ce29915215e4-db-table-hm_yoast_seo_meta.table.gz - 0.9 KB)
1061.127 (2) backup_2017-12-19-1507_Hakuna_Matata_Expeditions_ce29915215e4-db-table-hm_options.table.gz (1/20): adding to final database dump
1061.169 (2) backup_2017-12-19-1507_Hakuna_Matata_Expeditions_ce29915215e4-db-table-hm_users.table.gz (2/20): adding to final database dump
1061.170 (2) backup_2017-12-19-1507_Hakuna_Matata_Expeditions_ce29915215e4-db-table-hm_usermeta.table.gz (3/20): adding to final database dump
1061.172 (2) backup_2017-12-19-1507_Hakuna_Matata_Expeditions_ce29915215e4-db-table-hm_commentmeta.table.gz (4/20): adding to final database dump
1061.173 (2) backup_2017-12-19-1507_Hakuna_Matata_Expeditions_ce29915215e4-db-table-hm_comments.table.gz (5/20): adding to final database dump
1061.174 (2) backup_2017-12-19-1507_Hakuna_Matata_Expeditions_ce29915215e4-db-table-hm_links.table.gz (6/20): adding to final database dump
1061.175 (2) backup_2017-12-19-1507_Hakuna_Matata_Expeditions_ce29915215e4-db-table-hm_postmeta.table.gz (7/20): adding to final database dump
1061.261 (2) backup_2017-12-19-1507_Hakuna_Matata_Expeditions_ce29915215e4-db-table-hm_posts.table.gz (8/20): adding to final database dump
1061.425 (2) backup_2017-12-19-1507_Hakuna_Matata_Expeditions_ce29915215e4-db-table-hm_term_relationships.table.gz (9/20): adding to final database dump
1061.426 (2) backup_2017-12-19-1507_Hakuna_Matata_Expeditions_ce29915215e4-db-table-hm_term_taxonomy.table.gz (10/20): adding to final database dump
1061.429 (2) backup_2017-12-19-1507_Hakuna_Matata_Expeditions_ce29915215e4-db-table-hm_termmeta.table.gz (11/20): adding to final database dump
1061.430 (2) backup_2017-12-19-1507_Hakuna_Matata_Expeditions_ce29915215e4-db-table-hm_terms.table.gz (12/20): adding to final database dump
1061.431 (2) backup_2017-12-19-1507_Hakuna_Matata_Expeditions_ce29915215e4-db-table-hm_duplicator_packages.table.gz (13/20): adding to final database dump
1061.432 (2) backup_2017-12-19-1507_Hakuna_Matata_Expeditions_ce29915215e4-db-table-hm_redirection_404.table.gz (14/20): adding to final database dump
1061.433 (2) backup_2017-12-19-1507_Hakuna_Matata_Expeditions_ce29915215e4-db-table-hm_redirection_groups.table.gz (15/20): adding to final database dump
1061.434 (2) backup_2017-12-19-1507_Hakuna_Matata_Expeditions_ce29915215e4-db-table-hm_redirection_items.table.gz (16/20): adding to final database dump
1061.435 (2) backup_2017-12-19-1507_Hakuna_Matata_Expeditions_ce29915215e4-db-table-hm_redirection_logs.table.gz (17/20): adding to final database dump
1061.436 (2) backup_2017-12-19-1507_Hakuna_Matata_Expeditions_ce29915215e4-db-table-hm_smush_dir_images.table.gz (18/20): adding to final database dump
1061.437 (2) backup_2017-12-19-1507_Hakuna_Matata_Expeditions_ce29915215e4-db-table-hm_yoast_seo_links.table.gz (19/20): adding to final database dump
1061.441 (2) backup_2017-12-19-1507_Hakuna_Matata_Expeditions_ce29915215e4-db-table-hm_yoast_seo_meta.table.gz (20/20): adding to final database dump
1061.442 (2) backup_2017-12-19-1507_Hakuna_Matata_Expeditions_ce29915215e4-db.gz: finished writing out complete database file (1216 KB)
1061.462 (2) Total database tables backed up: 20 (backup_2017-12-19-1507_Hakuna_Matata_Expeditions_ce29915215e4-db.gz, size: 1273328, sha256)
1061.467 (2) backup_2017-12-19-1507_Hakuna_Matata_Expeditions_ce29915215e4-plugins.zip: plugins: This file has not yet been successfully uploaded: will queue
1061.467 (2) backup_2017-12-19-1507_Hakuna_Matata_Expeditions_ce29915215e4-themes.zip: themes: This file has not yet been successfully uploaded: will queue
1061.468 (2) backup_2017-12-19-1507_Hakuna_Matata_Expeditions_ce29915215e4-uploads.zip: uploads: This file has not yet been successfully uploaded: will queue
1061.469 (2) backup_2017-12-19-1507_Hakuna_Matata_Expeditions_ce29915215e4-uploads2.zip: uploads: This file has not yet been successfully uploaded: will queue
1061.469 (2) backup_2017-12-19-1507_Hakuna_Matata_Expeditions_ce29915215e4-others.zip: others: This file has not yet been successfully uploaded: will queue
1061.470 (2) backup_2017-12-19-1507_Hakuna_Matata_Expeditions_ce29915215e4-db.gz: db: This file has not yet been successfully uploaded: will queue
1061.471 (2) Saving backup history. Total backup size: 687.8 MB
1061.473 (2) Requesting upload of the files that have not yet been successfully uploaded (6)
1061.476 (2) Cloud backup selection (1/1): none with instance (1/1) (last)
1061.477 (2) No remote despatch: user chose no remote backup service
1061.478 (2) Recording as successfully uploaded: backup_2017-12-19-1507_Hakuna_Matata_Expeditions_ce29915215e4-plugins.zip (3ea1e71ae80e02bc9bcc710d1eae2562)
1061.483 (2) Recording as successfully uploaded: backup_2017-12-19-1507_Hakuna_Matata_Expeditions_ce29915215e4-themes.zip (8730e782f72b628c3e7f78d1a02531b7)
1061.486 (2) Recording as successfully uploaded: backup_2017-12-19-1507_Hakuna_Matata_Expeditions_ce29915215e4-uploads.zip (7d904014c22fe3f37aaa5551e0af4b80)
1061.490 (2) Recording as successfully uploaded: backup_2017-12-19-1507_Hakuna_Matata_Expeditions_ce29915215e4-uploads2.zip (59ec89d157c5ce7b94155b2afcb33125)
1061.494 (2) Recording as successfully uploaded: backup_2017-12-19-1507_Hakuna_Matata_Expeditions_ce29915215e4-others.zip (a8e10b6855b7f8de93530a2b54fa1f13)
1061.497 (2) Recording as successfully uploaded: backup_2017-12-19-1507_Hakuna_Matata_Expeditions_ce29915215e4-db.gz (847f10829b0cac43bf6be5ba0b826804)
1061.501 (2) Retain: beginning examination of existing backup sets; user setting: retain_files=2, retain_db=2
1061.502 (2) Number of backup sets in history: 2; groups (db): 1
1061.503 (2) Examining (for databases) backup set with group_id=0, nonce=ce29915215e4, datestamp=1513688864 (Dec 19 2017 13:07:44)
1061.504 (2) This backup set is the backup set just made, so will not be deleted.
1061.504 (2) Examining (for databases) backup set with group_id=0, nonce=a0b2e09b4be0, datestamp=1513633412 (Dec 18 2017 21:43:32)
1061.504 (2) This backup set remains non-empty (f=1/d=1); will retain in history
1061.505 (2) Number of backup sets in history: 2; groups (files): 1
1061.505 (2) Examining (for files) backup set with nonce=ce29915215e4, datestamp=1513688864 (Dec 19 2017 13:07:44)
1061.505 (2) This backup set is the backup set just made, so will not be deleted.
1061.506 (2) This backup set is the backup set just made, so will not be deleted.
1061.506 (2) This backup set is the backup set just made, so will not be deleted.
1061.506 (2) This backup set is the backup set just made, so will not be deleted.
1061.506 (2) This backup set remains non-empty (f=1/d=1); will retain in history
1061.507 (2) Examining (for files) backup set with nonce=a0b2e09b4be0, datestamp=1513633412 (Dec 18 2017 21:43:32)
1061.507 (2) This backup set remains non-empty (f=1/d=1); will retain in history
1061.507 (2) Retain: saving new backup history (sets now: 2) and finishing retain operation
1061.509 (2) Resume backup (ce29915215e4, 2): finish run
1061.511 (2) There were no errors in the uploads, so the 'resume' event (3) is being unscheduled
1061.513 (2) The backup apparently succeeded and is now complete
1061.514 (2) No email will/can be sent - the user has not configured an email address.
1061.515 (2) Резервное копирование успешно завершено
